Name,WeightClassKg,Division,Sex,Best3SquatKg,Best3BenchKg,Best3DeadliftKg,TotalKg,Event,Equipment,Place
C. Russell,44,Open,F,115.67,45.36,113.4,274.42,SBD,Single-ply,1
Majik Jones,48,Open,F,113.4,65.77,147.42,326.59,SBD,Single-ply,1
Barb Conis,48,Open,F,97.52,38.56,138.35,274.42,SBD,Single-ply,2
T. Winch,48,Open,F,95.25,45.36,117.93,258.55,SBD,Single-ply,3
M. Turner,48,Open,F,86.18,40.82,115.67,242.67,SBD,Single-ply,4
T. Chanch,48,Open,F,65.77,40.82,81.65,188.24,SBD,Single-ply,5
Linda Krussel,52,Open,F,83.91,43.09,120.2,247.21,SBD,Single-ply,1
S. Bunn,52,Open,F,77.11,40.82,111.13,229.06,SBD,Single-ply,2
S. Pence #1,52,Open,F,,,,,SBD,Single-ply,DQ
Gail Buys,56,Open,F,108.86,49.9,124.74,283.5,SBD,Single-ply,1
B. Wilson,56,Open,F,49.9,40.82,79.38,170.1,SBD,Single-ply,2
R. Mullica,56,Open,F,52.16,34.02,79.38,165.56,SBD,Single-ply,3
T. Goudy,56,Open,F,,,,,SBD,Single-ply,DQ
Jill Olson,60,Open,F,147.42,72.57,149.69,369.68,SBD,Single-ply,1
C. Donner,60,Open,F,81.65,43.09,104.33,229.06,SBD,Single-ply,2
C. Churna,67.5,Open,F,92.99,56.7,124.74,274.42,SBD,Single-ply,1
T. Green,67.5,Open,F,99.79,49.9,117.93,267.62,SBD,Single-ply,2
J. Fields,75,Open,F,113.4,61.24,138.35,312.98,SBD,Single-ply,1
J. Froeling,90,Open,F,115.67,72.57,158.76,347,SBD,Single-ply,1
Jack Bunn,52,Open,M,104.33,54.43,145.15,303.91,SBD,Single-ply,1
A. Crawford,52,Open,M,77.11,52.16,102.06,231.33,SBD,Single-ply,7
T. Brekke,52,Open,M,,83.91,38.56,,SBD,Single-ply,DQ
Bobert Donnolly,60,Open,M,170.1,99.79,183.71,453.59,SBD,Single-ply,1
R. McDowell,60,Open,M,117.93,92.99,188.24,399.16,SBD,Single-ply,2
J. Tedrow,67.5,Open,M,174.63,129.27,217.72,521.63,SBD,Single-ply,1
S. Diveney,67.5,Open,M,158.76,108.86,229.06,496.68,SBD,Single-ply,2
D. Stump,67.5,Open,M,185.97,102.06,197.31,485.34,SBD,Single-ply,3
B. Janes,67.5,Open,M,174.63,104.33,197.31,476.27,SBD,Single-ply,4
D. Gibbs,67.5,Open,M,154.22,90.72,181.44,426.38,SBD,Single-ply,5
D. Koester,67.5,Open,M,120.2,102.06,154.22,376.48,SBD,Single-ply,6
Doug Petersen,75,Open,M,260.82,131.54,254.01,646.37,SBD,Single-ply,1
Pete Conis,75,Open,M,238.14,147.42,244.94,630.49,SBD,Single-ply,2
Wally Henry,75,Open,M,219.99,138.35,229.06,587.4,SBD,Single-ply,3
T. Weikert,75,Open,M,206.38,131.54,219.99,557.92,SBD,Single-ply,4
D. Galetka,75,Open,M,219.99,133.81,204.12,557.92,SBD,Single-ply,5
Jim Countryman,75,Open,M,206.38,111.13,210.92,528.44,SBD,Single-ply,6
L. Soltero,75,Open,M,199.58,131.54,195.04,526.17,SBD,Single-ply,7
J. Tryon,75,Open,M,163.29,136.08,204.12,503.49,SBD,Single-ply,8
R. Olson,75,Open,M,181.44,111.13,197.31,489.88,SBD,Single-ply,9
C. Stern,75,Open,M,127.01,113.4,181.44,421.84,SBD,Single-ply,10
P. Lombardo,75,Open,M,142.88,88.45,172.37,403.7,SBD,Single-ply,11
Pat Blanchard,82.5,Open,M,283.5,181.44,272.16,737.09,SBD,Single-ply,1
Dave Gilman,82.5,Open,M,267.62,158.76,285.76,712.14,SBD,Single-ply,2
Doug Gilbertson,82.5,Open,M,238.14,145.15,231.33,614.62,SBD,Single-ply,3
M. Pratt,82.5,Open,M,229.06,154.22,226.8,610.08,SBD,Single-ply,4
M. Bunn,82.5,Open,M,222.26,138.35,240.4,601.01,SBD,Single-ply,5
J. Schmoller,82.5,Open,M,208.65,140.61,210.92,560.19,SBD,Single-ply,6
J. Wearth,82.5,Open,M,222.26,117.93,213.19,553.38,SBD,Single-ply,7
R. Tjelmeland,82.5,Open,M,208.65,122.47,208.65,539.78,SBD,Single-ply,8
T. Lyons,82.5,Open,M,183.71,97.52,208.65,489.88,SBD,Single-ply,9
D. Haynes,82.5,Open,M,185.97,97.52,199.58,483.08,SBD,Single-ply,10
C. Crider,90,Open,M,272.16,165.56,256.28,694,SBD,Single-ply,1
J. Nenow,90,Open,M,238.14,149.69,258.55,646.37,SBD,Single-ply,2
K. Jacobson,90,Open,M,244.94,147.42,251.74,644.1,SBD,Single-ply,3
R. Skartvedt,90,Open,M,226.8,149.69,244.94,621.42,SBD,Single-ply,4
Max Duvall,90,Open,M,208.65,131.54,238.14,578.33,SBD,Single-ply,5
S. Brunia,90,Open,M,206.38,127.01,210.92,544.31,SBD,Single-ply,6
U. Kanto,90,Open,M,163.29,108.86,226.8,498.95,SBD,Single-ply,7
Dennis Garrett,100,Open,M,328.85,190.51,308.44,827.81,SBD,Single-ply,1
K. Schneck,100,Open,M,281.23,158.76,258.55,698.53,SBD,Single-ply,2
R. Bratrud,100,Open,M,229.06,124.74,244.94,598.74,SBD,Single-ply,3
Charlie Driscoll,110,Open,M,306.18,183.71,317.52,807.4,SBD,Single-ply,1
Brad Kretsch,110,Open,M,254.01,172.37,297.1,723.48,SBD,Single-ply,2
R. Foster,110,Open,M,278.96,156.49,285.76,721.21,SBD,Single-ply,3
R. Ball,110,Open,M,254.01,147.42,281.23,682.66,SBD,Single-ply,4
M. Schiltz,110,Open,M,226.8,142.88,235.87,605.55,SBD,Single-ply,5
K. Arends,110,Open,M,181.44,154.22,226.8,562.46,SBD,Single-ply,6
J. Bachman,110,Open,M,210.92,115.67,215.46,542.04,SBD,Single-ply,7
H. Hitchcock,110,Open,M,299.37,,,,SBD,Single-ply,DQ
D. Tjelmeland,110,Open,M,,,,,SBD,Single-ply,DQ
C. Berry,125,Open,M,229.06,183.71,276.69,689.46,SBD,Single-ply,1
R. Scott,125,Open,M,254.01,167.83,267.62,689.46,SBD,Single-ply,2
Lance Stewart,125,Open,M,240.4,151.95,249.48,641.83,SBD,Single-ply,3
Larry Wearth,125,Open,M,260.82,131.54,249.48,641.83,SBD,Single-ply,4
L. Paper,125+,Open,M,226.8,120.2,204.12,551.12,SBD,Single-ply,1
