Place,Name,BirthYear,BodyweightKg,BirthDate,Team,Squat1Kg,Squat2Kg,Squat3Kg,Best3SquatKg,Bench1Kg,Bench2Kg,Bench3Kg,Best3BenchKg,Deadlift1Kg,Deadlift2Kg,Deadlift3Kg,Best3DeadliftKg,TotalKg,Sex,Division,WeightClassKg,Event,Equipment
1,Anthony Brösel,,124.5,1993-09-08,TSG 1885 Augsburg e.V.,230,245,250,250,155,165,-172.5,165,227.5,240,252.5,252.5,667.5,M,Open,120+,SBD,Raw
1,Maximilian Ernst,,105.4,1990-08-20,TSG 1885 Augsburg e.V.,210,220,230,230,150,-157.5,160,160,220,230,240,240,630,M,Open,120,SBD,Raw
1,Patrick Ledermann,1998,91.1,,TSG 1885 Augsburg e.V.,220,-230,230,230,140,-145,145,145,225,232.5,240,240,615,M,Juniors,93,SBD,Raw
1,Martin Slach,1976,96.4,,AC Kaufbeuren e.V.,210,217.5,225,225,145,-150,-150,145,225,235,245,245,615,M,Masters 1,105,SBD,Raw
1,Pietro Rossi,1998,73.6,,ASV 1897 Neu-Ulm e.V.,190,202.5,210,210,110,120,-130,120,190,210,-225,210,540,M,Juniors,74,SBD,Raw
G,Johannes Schaf,,112.6,2000-02-07,VfB Friedrichshafen e.V.,180,190,200,200,127.5,132.5,135,135,210,230,240,240,575,M,Open,120,SBD,Raw
3,Benedikt Philipp,1999,88.8,,TSV Burgau,175,-185,190,190,120,127.5,-132.5,127.5,210,222.5,232.5,232.5,550,M,Juniors,93,SBD,Raw
1,Mattia Giardini,,90.1,1984-05-21,ASV 1897 Neu-Ulm e.V.,175,-180,180,180,115,120,-122.5,120,205,210,,210,510,M,Open,93,SBD,Raw
2,Thomas Kaputa,,90.5,1992-04-11,ASV 1897 Neu-Ulm e.V.,-155,155,165,165,102.5,110,-112.5,110,185,195,210,210,485,M,Open,93,SBD,Raw
3,Alexander Soyter,,104,1991-02-08,AC Kaufbeuren e.V.,145,155,165,165,117.5,125,130,130,192.5,205,215,215,510,M,Open,105,SBD,Raw
2,Florian Wolf,1978,102.6,,TV 1860 Immenstadt,135,150,160,160,135,-147.5,-147.5,135,235,247.5,-255,247.5,542.5,M,Masters 1,105,SBD,Raw
1,Rainer Harsch,2001,72.2,,ASV 1897 Neu-Ulm e.V.,145,155,160,160,100,105,-110,105,165,175,185,185,450,M,Youth,74,SBD,Raw
3,Sven-Henry Straub,,91.1,1981-02-25,TSV Burgau,140,150,160,160,130,-137.5,-137.5,130,150,160,170,170,460,M,Open,93,SBD,Raw
4,Marc Dorszelski,,91.3,1994-12-23,ASV 1897 Neu-Ulm e.V.,142.5,150,157.5,157.5,92.5,-100,-100,92.5,167.5,177.5,185,185,435,M,Open,93,SBD,Raw
3,Max Meinusch,,72.8,1988-04-30,AC Kaufbeuren e.V.,145,150,155,155,95,100,-102.5,100,155,160,-165,160,415,M,Open,74,SBD,Raw
1,Michael Joachim,1996,78.8,,AC Kaufbeuren e.V.,140,145,152.5,152.5,110,-115,120,120,170,185,195,195,467.5,M,Juniors,83,SBD,Raw
1,Dmitriy Kuznetsov,,72.9,1992-12-09,AC Kaufbeuren e.V.,135,142.5,150,150,107.5,115,120,120,170,182.5,190,190,460,M,Open,74,SBD,Raw
4,Niklas Schöffe,1997,87.8,,AC Kaufbeuren e.V.,125,140,145,145,75,82.5,90,90,155,175,185,185,420,M,Juniors,93,SBD,Raw
3,Manuel Kohler,,82.4,1990-06-15,ASV 1897 Neu-Ulm e.V.,125,132.5,140,140,77.5,85,-90,85,165,175,182.5,182.5,407.5,M,Open,83,SBD,Raw
1,Malina Müller,1992,75.5,,ASV 1897 Neu-Ulm e.V.,120,130,135,135,90,95,-100,95,140,150,155,155,385,F,Open,84,SBD,Raw
2,Ulrich Husel,1998,93.3,,TSV Burgau,115,125,135,135,100,-107.5,107.5,107.5,130,140,145,145,387.5,M,Juniors,105,SBD,Raw
1,Sanja Schönberger,1997,70.3,,TV 1860 Immenstadt,115,125,130,130,55,62.5,65,65,120,130,-137.5,130,325,F,Juniors,72,SBD,Raw
1,Aline Hiebsch,1997,62.1,,AC Kaufbeuren e.V.,102.5,107.5,112.5,112.5,52.5,57.5,60,60,112.5,120,125,125,297,F,Open,63,SBD,Raw
2,Rosa Zink,1991,82.4,,ASV 1897 Neu-Ulm e.V.,95,100,105,105,52.5,-55,-55,52.5,115,-125,-125,115,272.5,F,Open,84,SBD,Raw
1,Axel Rottach,1996,72.4,,AC Kaufbeuren e.V.,-100,-105,105,105,95,105,-110,105,135,145,160,160,370,M,Juniors,74,SBD,Raw
1,Patrick Weresch,,80.4,1991-09-11,ASV 1897 Neu-Ulm e.V.,160,170,-175,170,100,107.5,-112.5,107.5,190,-200,-200,190,467.5,M,Open,83,SBD,Raw
4,Maximilian Kropp,,104.5,1989-08-28,TSV Burgau,-165,165,-180,165,125,-135,-135,125,140,170,200,200,490,M,Open,105,SBD,Raw
2,Niklas Kühn,1998,92.5,,TSV Burgau,170,180,-185,180,-110,115,-120,115,,215,-230,215,510,M,Juniors,93,SBD,Raw
DQ,Moritz Vitzthum,2001,90.9,,TSV Burgau,190,195,-200,195,-130,-135,-135,,185,195,-210,195,,M,Youth,93,SBD,Raw
2,Dominik Baumgarten,,73,1995-10-26,ASV 1897 Neu-Ulm e.V.,190,-200,-200,190,120,125,130,130,167.5,177.5,185,185,505,M,Open,74,SBD,Raw
3,Simon Neidlinger,1998,101.4,,ASV 1897 Neu-Ulm e.V.,175,190,-200,190,125,,,125,190,,,190,505,M,Juniors,105,SBD,Raw
2,Alex Kontschev,,99.6,1980-10-01,ASV 1897 Neu-Ulm e.V.,190,200,-210,200,150,160,,160,210,220,-230,220,580,M,Open,105,SBD,Raw
1,Felix Dinkel,,95.7,1986-07-18,Coburger Turnerschaft 1861 e.V.,200,215,-222.5,215,135,-140,140,140,235,,,235,590,M,Open,105,SBD,Raw
1,Walter Braun,1951,118.2,,TSV Burgau,,,,,150,-155,-155,150,,,,,150,M,Masters 3,120,B,Raw
1,Xaver Kennerknech,1946,105.3,,AC Kaufbeuren,,,,,80,85,90,90,,,,,90,M,Masters 4,120,B,Raw
1,Andreas King,1966,99.6,,TSV Burgau,,,,,160,170,-175,170,,,,,170,M,Masters 2,105,B,Raw
1,Manfred Hu,1969,78.1,,AC Kaufbeuren,,,,,200,225,230,230,,,,,230,M,Masters 2,83,B,Raw
1,Alexander Riggle,1966,79.3,,TSV Burgau,,,,,110,115,120,120,,,,,120,M,Masters 2,83,B,Raw
1,Arthur Ahle,1941,80.7,,TSV Burgau,,,,,75,-85,-85,75,,,,,75,M,Masters 4,83,B,Raw
1,Johann Mader,1940,73.4,,TSV Burgau,,,,,65,70,-72.5,70,,,,,70,M,Masters 4,74,B,Raw
1,Edris Maroufi,,69.6,1989-01-09,TSV Burgau,,,,,125,130,-135,130,,,,,130,M,Open,74,B,Raw
G,Vinzenz Taufratshofer,,95.4,1988-04-16,TV 1860 Immenstadt,,,,,150,-157.5,-157.5,150,,,,,150,M,Open,105,B,Raw
1,Daniel Hupfauer,1999,67.4,,TSV Burgau,,,,,110,120,130,130,,,,,130,M,Open,74,B,Raw
