Name,WeightClassKg,Division,Sex,Age,Best3SquatKg,Best3BenchKg,Best3DeadliftKg,TotalKg,Event,Equipment,Place
Charles Lockard,52,Open,M,,115,62.5,145,322.5,SBD,Single-ply,1
T. Spearman,52,Open,M,,110,85,127.5,322.5,SBD,Single-ply,2
D. Barnette,52,Open,M,,107.5,77.5,110,295,SBD,Single-ply,3
K. Thomas,52,Open,M,,70,47.5,87.5,205,SBD,Single-ply,4
Randall Kea,56,Open,M,,180,140,197.5,517.5,SBD,Single-ply,1
B. Denny,56,Open,M,,125,87.5,147.5,360,SBD,Single-ply,2
Victor Williams,60,Open,M,,232.5,137.5,240,610,SBD,Single-ply,1
R. Atkinson,60,Open,M,,177.5,142.5,172.5,492.5,SBD,Single-ply,2
M. Parnell,60,Open,M,,175,95,195,465,SBD,Single-ply,3
C. Westmoreland,60,Open,M,,142.5,115,182.5,440,SBD,Single-ply,4
R. Huxford,60,Open,M,,160,92.5,180,432.5,SBD,Single-ply,5
Daniel Austin #1,67.5,Open,M,24,282.5,165,260,707.5,SBD,Single-ply,1
J. Gantt,67.5,Open,M,,192.5,120,220,532.5,SBD,Single-ply,2
D. Blakeley,67.5,Open,M,,165,127.5,205,497.5,SBD,Single-ply,3
T. Pardue,67.5,Open,M,,172.5,120,197.5,490,SBD,Single-ply,4
George Herring,75,Open,M,,287.5,175,305,767.5,SBD,Single-ply,1
Sam Pardue,75,Open,M,,247.5,162.5,235,645,SBD,Single-ply,2
D. Hamrick,75,Open,M,,222.5,172.5,230,625,SBD,Single-ply,3
J. Hutchins,75,Open,M,,235,142.5,237.5,615,SBD,Single-ply,4
T. Nowlin,75,Open,M,,220,150,242.5,612.5,SBD,Single-ply,5
Clealan Watts,75,Open,M,,205,130,252.5,587.5,SBD,Single-ply,6
R. Glinski,75,Open,M,,207.5,155,210,572.5,SBD,Single-ply,7
M. Leaphart,75,Open,M,,210,117.5,220,547.5,SBD,Single-ply,8
Charles Thompson,82.5,Open,M,,235,157.5,272.5,665,SBD,Single-ply,1
Ross DePencier,82.5,Open,M,,245,170,250,665,SBD,Single-ply,2
G. Achille,82.5,Open,M,,237.5,147.5,270,655,SBD,Single-ply,3
Mike Apps,82.5,Open,M,,235,145,275,655,SBD,Single-ply,4
Curtis Leslie,82.5,Open,M,,237.5,162.5,250,650,SBD,Single-ply,5
R. Stevens,82.5,Open,M,,217.5,180,252.5,650,SBD,Single-ply,6
B. Hopkins,82.5,Open,M,,232.5,155,245,632.5,SBD,Single-ply,7
Fred Graham,82.5,Open,M,,225,135,270,630,SBD,Single-ply,8
F. Morrison,82.5,Open,M,,165,125,192.5,482.5,SBD,Single-ply,9
Alan Campos,82.5,Open,M,,,,,,SBD,Single-ply,DQ
John Cappola,90,Open,M,,320,182.5,320,822.5,SBD,Single-ply,1
Richard Potts,90,Open,M,,282.5,182.5,282.5,747.5,SBD,Single-ply,2
Will Washington,90,Open,M,,272.5,157.5,282.5,712.5,SBD,Single-ply,3
T. Clark,90,Open,M,,240,145,237.5,622.5,SBD,Single-ply,4
Eddie Buffkin,90,Open,M,,232.5,147.5,240,620,SBD,Single-ply,5
V. Lassiter,90,Open,M,,212.5,167.5,210,590,SBD,Single-ply,6
A. Tripp,90,Open,M,,200,132.5,217.5,550,SBD,Single-ply,7
J. Hoffman,90,Open,M,,,,,,SBD,Single-ply,DQ
Bobo Eason,100,Open,M,,310,175,295,780,SBD,Single-ply,1
Jerry Beckham,100,Open,M,,287.5,192.5,275,755,SBD,Single-ply,2
Rock Silon,100,Open,M,,292.5,170,292.5,755,SBD,Single-ply,3
Kevin Bray,100,Open,M,,250,175,287.5,712.5,SBD,Single-ply,4
H. Montgomery,100,Open,M,,245,160,300,705,SBD,Single-ply,5
Greg Stratton,100,Open,M,,275,160,260,695,SBD,Single-ply,6
Fred Garrett,100,Open,M,,312.5,197.5,,,SBD,Single-ply,DQ
S. Piatek,100,Open,M,,137.5,147.5,,,SBD,Single-ply,DQ
J. Bryant,100,Open,M,,,,,,SBD,Single-ply,DQ
T. Ring,110,Open,M,,310,187.5,292.5,790,SBD,Single-ply,1
B. Slack,110,Open,M,,285,172.5,292.5,750,SBD,Single-ply,2
R. Briggs,110,Open,M,,282.5,192.5,260,735,SBD,Single-ply,3
J. Payne,110,Open,M,,255,155,265,675,SBD,Single-ply,4
D. Clark,110,Open,M,,252.5,170,250,672.5,SBD,Single-ply,5
Doug Ricafrente,125,Open,M,,320,220,295,835,SBD,Single-ply,1
J. Batson,125,Open,M,,285,182.5,277.5,745,SBD,Single-ply,2
R. Harris,125,Open,M,,277.5,167.5,287.5,732.5,SBD,Single-ply,3
Jim Schultz,125,Open,M,,260,190,255,705,SBD,Single-ply,4
S. Stathopoulos,125,Open,M,,242.5,160,290,692.5,SBD,Single-ply,5
J. Brown,125,Open,M,,,,,,SBD,Single-ply,DQ
J. Byrum,125,Open,M,,,,,,SBD,Single-ply,DQ
Ernie Surrell,125+,Open,M,,345,180,272.5,797.5,SBD,Single-ply,1
Bill McElveen,125+,Open,M,,305,192.5,272.5,770,SBD,Single-ply,2
Robert Putman,125+,Open,M,,227.5,125,192.5,545,SBD,Single-ply,3
J. Meadows,52,Novice,M,,100,92.5,150,342.5,SBD,Single-ply,1
T. Spearman,52,Novice,M,,110,85,127.5,322.5,SBD,Single-ply,2
D. Barnette,52,Novice,M,,107.5,77.5,110,295,SBD,Single-ply,3
T. Thompson,52,Novice,M,,75,50,102.5,227.5,SBD,Single-ply,4
R. Thomas,52,Novice,M,,70,47.5,87.5,205,SBD,Single-ply,5
J. Smith,52,Novice,M,,70,45,70,185,SBD,Single-ply,6
B. Denny,56,Novice,M,,125,87.5,147.5,360,SBD,Single-ply,1
G. Gillespie,56,Novice,M,,102.5,72.5,130,305,SBD,Single-ply,2
M. Fort,56,Novice,M,,92.5,55,137.5,285,SBD,Single-ply,3
M. Parnell,60,Novice,M,,175,95,195,465,SBD,Single-ply,1
D. Burnett,60,Novice,M,,145,92.5,177.5,415,SBD,Single-ply,2
C. Pardue,60,Novice,M,,142.5,92.5,137.5,372.5,SBD,Single-ply,3
G. Purvis,60,Novice,M,,142.5,92.5,137.5,372.5,SBD,Single-ply,4
J. Geer,60,Novice,M,,,,,,SBD,Single-ply,DQ
J. Gantt,67.5,Novice,M,,192.5,120,220,532.5,SBD,Single-ply,1
L. Twitty,67.5,Novice,M,,200,117.5,195,512.5,SBD,Single-ply,2
P. Roper,67.5,Novice,M,,180,105,200,485,SBD,Single-ply,3
A. Mauldin,67.5,Novice,M,,180,107.5,172.5,460,SBD,Single-ply,4
B. Barton,67.5,Novice,M,,177.5,97.5,182.5,457.5,SBD,Single-ply,5
T. Long,67.5,Novice,M,,155,117.5,165,437.5,SBD,Single-ply,6
C. Fowler,67.5,Novice,M,,145,120,165,430,SBD,Single-ply,7
A. Keesler,67.5,Novice,M,,150,100,170,420,SBD,Single-ply,8
K. Young,67.5,Novice,M,,142.5,100,170,412.5,SBD,Single-ply,9
R. Thompson,67.5,Novice,M,,147.5,72.5,185,405,SBD,Single-ply,10
J. Manuel,67.5,Novice,M,,145,85,172.5,402.5,SBD,Single-ply,11
C. Christian,67.5,Novice,M,,115,115,160,390,SBD,Single-ply,12
J. Robbins,67.5,Novice,M,,117.5,95,157.5,370,SBD,Single-ply,13
R. Davis,67.5,Novice,M,,127.5,77.5,125,330,SBD,Single-ply,15
J. Hayes,67.5,Novice,M,,90,87.5,137.5,315,SBD,Single-ply,16
G. Evans,67.5,Novice,M,,110,95,160,365,SBD,Single-ply,14
Brad DeCamp,75,Novice,M,,205,155,205,565,SBD,Single-ply,1
R. Smith,75,Novice,M,,185,137.5,235,557.5,SBD,Single-ply,2
M. Leaphart,75,Novice,M,,210,117.5,220,547.5,SBD,Single-ply,3
G. Crenshaw,75,Novice,M,,192.5,122.5,225,540,SBD,Single-ply,4
R. Starke,75,Novice,M,,182.5,150,200,532.5,SBD,Single-ply,5
M. Baker,75,Novice,M,,202.5,120,207.5,530,SBD,Single-ply,6
R. Allen,75,Novice,M,,197.5,107.5,225,530,SBD,Single-ply,7
R. Cloninger,75,Novice,M,,180,137.5,205,522.5,SBD,Single-ply,8
R. Ruff,75,Novice,M,,215,120,185,520,SBD,Single-ply,9
C. Petty,75,Novice,M,,205,127.5,185,517.5,SBD,Single-ply,10
R. Hale,75,Novice,M,,170,120,212.5,502.5,SBD,Single-ply,11
P. Topper,75,Novice,M,,172.5,135,182.5,490,SBD,Single-ply,12
J. Wilson,75,Novice,M,,170,112.5,187.5,470,SBD,Single-ply,13
T. Craig,75,Novice,M,,145,95,177.5,417.5,SBD,Single-ply,14
R. Brower,75,Novice,M,,115,90,130,335,SBD,Single-ply,15
S. Hayes,75,Novice,M,,177.5,,,,SBD,Single-ply,DQ
M. Weger,75,Novice,M,,,,,,SBD,Single-ply,DQ
R. Moon,82.5,Novice,M,,212.5,150,225,587.5,SBD,Single-ply,1
Ralph Pardue,82.5,Novice,M,,240,122.5,220,582.5,SBD,Single-ply,2
J. Reece,82.5,Novice,M,,182.5,137.5,227.5,547.5,SBD,Single-ply,3
J. Hill,82.5,Novice,M,,192.5,125,225,542.5,SBD,Single-ply,4
M. Walpole,82.5,Novice,M,,202.5,117.5,222.5,542.5,SBD,Single-ply,5
M. Justus,82.5,Novice,M,,200,135,205,540,SBD,Single-ply,6
C. Rueolis,82.5,Novice,M,,207.5,117.5,200,525,SBD,Single-ply,7
A. Pyrtle,82.5,Novice,M,,165,135,212.5,512.5,SBD,Single-ply,8
D. Walker,82.5,Novice,M,,177.5,117.5,207.5,502.5,SBD,Single-ply,9
G. Hollinger,82.5,Novice,M,,180,117.5,205,502.5,SBD,Single-ply,10
R. Linville,82.5,Novice,M,,185,115,200,500,SBD,Single-ply,11
R. Brady,82.5,Novice,M,,182.5,117.5,200,500,SBD,Single-ply,12
S. Smith,82.5,Novice,M,,190,105,200,495,SBD,Single-ply,13
P. Cochran,82.5,Novice,M,,180,115,190,485,SBD,Single-ply,14
F. Morrison,82.5,Novice,M,,165,125,192.5,482.5,SBD,Single-ply,15
T. Cooper,82.5,Novice,M,,172.5,100,187.5,460,SBD,Single-ply,16
J. Rouse,82.5,Novice,M,,155,105,180,440,SBD,Single-ply,17
R. Gilbert,82.5,Novice,M,,147.5,,,,SBD,Single-ply,DQ
S. Jones,90,Novice,M,,272.5,130,227.5,630,SBD,Single-ply,1
T. Clark,90,Novice,M,,240,145,237.5,622.5,SBD,Single-ply,2
Eddie Buffkin,90,Novice,M,,232.5,147.5,240,620,SBD,Single-ply,3
M. Jones,90,Novice,M,,227.5,142.5,240,610,SBD,Single-ply,4
C. Cook,90,Novice,M,,205,160,242.5,607.5,SBD,Single-ply,5
R. Ogburn,90,Novice,M,,225,115,237.5,577.5,SBD,Single-ply,6
S. Styles,90,Novice,M,,210,127.5,227.5,565,SBD,Single-ply,7
T. Cox,90,Novice,M,,220,122.5,215,557.5,SBD,Single-ply,8
A. Tripp,90,Novice,M,,200,132.5,217.5,550,SBD,Single-ply,9
M. Patterson,90,Novice,M,,205,142.5,200,547.5,SBD,Single-ply,10
T. Williams,90,Novice,M,,192.5,132.5,217.5,542.5,SBD,Single-ply,12
E. Cianfarra,90,Novice,M,,190,132.5,220,542.5,SBD,Single-ply,13
S. Shelton,90,Novice,M,,187.5,125,227.5,540,SBD,Single-ply,14
R. Risen,90,Novice,M,,175,145,217.5,537.5,SBD,Single-ply,15
M. Ferrell,90,Novice,M,,170,147.5,205,522.5,SBD,Single-ply,16
D. Pack,90,Novice,M,,210,120,192.5,522.5,SBD,Single-ply,17
R. Taylor,90,Novice,M,,187.5,117.5,210,515,SBD,Single-ply,18
J. Lee,90,Novice,M,,165,127.5,220,512.5,SBD,Single-ply,19
V. Thornburg,90,Novice,M,,187.5,112.5,205,505,SBD,Single-ply,20
B. Clodfelter,90,Novice,M,,172.5,100,160,432.5,SBD,Single-ply,23
R. Ring,90,Novice,M,,165,125,185,475,SBD,Single-ply,21
J. Wallace,90,Novice,M,,142.5,125,192.5,460,SBD,Single-ply,22
G. Tatum,90,Novice,M,,125,102.5,205,432.5,SBD,Single-ply,24
T. Luck,90,Novice,M,,222.5,132.5,,,SBD,Single-ply,DQ
E. Teters,90,Novice,M,,157.5,,,,SBD,Single-ply,DQ
C. Watson,90,Novice,M,,,,,,SBD,Single-ply,DQ
J. Patterson,90,Novice,M,,,,,,SBD,Single-ply,DQ
C. Corbin,90,Novice,M,,200,147.5,200,547.5,SBD,Single-ply,11
D. Goff,100,Novice,M,,265,157.5,250,672.5,SBD,Single-ply,1
L. Jones,100,Novice,M,,257.5,165,247.5,670,SBD,Single-ply,2
J. McEntire,100,Novice,M,,252.5,165,237.5,655,SBD,Single-ply,3
R. Sawyer,100,Novice,M,,255,152.5,245,652.5,SBD,Single-ply,4
Allen Wentworth,100,Novice,M,,240,137.5,257.5,635,SBD,Single-ply,5
C. Pressley,100,Novice,M,,220,132.5,252.5,605,SBD,Single-ply,6
T. Ridge,100,Novice,M,,215,157.5,230,602.5,SBD,Single-ply,7
R. Woodall,100,Novice,M,,192.5,145,227.5,565,SBD,Single-ply,8
T. Holland,100,Novice,M,,210,155,197.5,562.5,SBD,Single-ply,9
R. Hancock,100,Novice,M,,217.5,105,237.5,560,SBD,Single-ply,10
R. Wilson,100,Novice,M,,195,115,202.5,512.5,SBD,Single-ply,11
S. Piatek,100,Novice,M,,137.5,147.5,,,SBD,Single-ply,DQ
K. Briggs,110,Novice,M,,282.5,192.5,260,735,SBD,Single-ply,1
J. Powell,110,Novice,M,,242.5,165,227.5,635,SBD,Single-ply,2
W. Jordan,110,Novice,M,,230,157.5,245,632.5,SBD,Single-ply,3
L. Vickery,110,Novice,M,,220,182.5,227.5,630,SBD,Single-ply,4
M. Stillinger,110,Novice,M,,217.5,155,247.5,620,SBD,Single-ply,5
J. Wright,110,Novice,M,,212.5,117.5,227.5,557.5,SBD,Single-ply,6
J. Spearman,110,Novice,M,,167.5,147.5,237.5,552.5,SBD,Single-ply,7
G. Mason,110,Novice,M,,195,120,,,SBD,Single-ply,DQ
D. Fusci,110,Novice,M,,,,,,SBD,Single-ply,DQ
Eric Redding,110,Novice,M,,,,,,SBD,Single-ply,DQ
J. Batson,125,Novice,M,,285,182.5,277.5,745,SBD,Single-ply,1
R. Harris,125,Novice,M,,277.5,167.5,287.5,732.5,SBD,Single-ply,2
R. Morgan,125,Novice,M,,192.5,145,227.5,565,SBD,Single-ply,3
R. Smith,125,Novice,M,,227.5,112.5,220,560,SBD,Single-ply,4
T. Rorie,125,Novice,M,,182.5,127.5,217.5,527.5,SBD,Single-ply,5
M. Ervin,125,Novice,M,,185,97.5,182.5,465,SBD,Single-ply,6
S. Brown,125+,Novice,M,,232.5,160,250,642.5,SBD,Single-ply,1
R. Chrioscer,125+,Novice,M,,227.5,115,227.5,570,SBD,Single-ply,2
Robert Putnam Jr,125+,Novice,M,,227.5,125,192.5,545,SBD,Single-ply,3
F. Treywick,125+,Novice,M,,,,,,SBD,Single-ply,DQ
