Name,WeightClassKg,Division,AgeRange,Sex,Age,BodyweightKg,Best3SquatKg,Best3BenchKg,Best3DeadliftKg,TotalKg,Event,Equipment,Place
Herman Burns,52,Teen,13-19,M,,,113.4,79.38,149.69,342.46,SBD,Single-ply,1
D. Bauer,52,Teen,13-19,M,,,83.91,83.91,124.74,292.57,SBD,Single-ply,2
J. Orcutt,52,Teen,13-19,M,,,58.97,72.57,95.25,226.8,SBD,Single-ply,3
A. Parks,52,Teen,13-19,M,,,58.97,56.7,102.06,217.72,SBD,Single-ply,4
Bryan Love,56,Teen,13-19,M,,,142.88,90.72,174.63,408.23,SBD,Single-ply,1
Marcus Kimble,56,Teen,13-19,M,,,136.08,81.65,181.44,399.16,SBD,Single-ply,2
D. Johnson,56,Teen,13-19,M,,,108.86,104.33,172.37,385.55,SBD,Single-ply,3
A. Lucas,56,Teen,13-19,M,,,122.47,81.65,158.76,362.87,SBD,Single-ply,4
I. McAdory,56,Teen,13-19,M,,,120.2,65.77,161.03,347,SBD,Single-ply,5
S. Kandra,56,Teen,13-19,M,,,90.72,54.43,97.52,242.67,SBD,Single-ply,6
Leroy Horne,60,Teen,13-19,M,,,183.71,113.4,197.31,494.42,SBD,Single-ply,1
D. Phohman,60,Teen,13-19,M,,,131.54,72.57,170.1,374.21,SBD,Single-ply,2
T. Becht,60,Teen,13-19,M,,,124.74,86.18,163.29,374.21,SBD,Single-ply,3
J. Lewis,60,Teen,13-19,M,,,95.25,79.38,136.08,310.71,SBD,Single-ply,4
Kevin Jackson,67.5,Teen,13-19,M,,65.77,185.97,136.08,242.67,564.72,SBD,Single-ply,1
R. Clifton,67.5,Teen,13-19,M,,,215.46,117.93,215.46,548.85,SBD,Single-ply,2
D. Tarver,67.5,Teen,13-19,M,,,163.29,113.4,190.51,467.2,SBD,Single-ply,3
D. Nailor,67.5,Teen,13-19,M,,,158.76,97.52,181.44,437.72,SBD,Single-ply,4
P. Clemons,67.5,Teen,13-19,M,,,142.88,83.91,181.44,408.23,SBD,Single-ply,5
T. Kelly,67.5,Teen,13-19,M,,,108.86,86.18,181.44,376.48,SBD,Single-ply,6
D. Kiblin,67.5,Teen,13-19,M,,,104.33,88.45,170.1,362.87,SBD,Single-ply,7
B. Wise,67.5,Teen,13-19,M,,,129.27,90.72,140.61,360.61,SBD,Single-ply,8
G. Farkash,67.5,Teen,13-19,M,,,108.86,86.18,154.22,349.27,SBD,Single-ply,9
L. Henderson,67.5,Teen,13-19,M,,,117.93,90.72,136.08,344.73,SBD,Single-ply,10
S. Parks #4,67.5,Teen,13-19,M,,,86.18,77.11,163.29,326.59,SBD,Single-ply,11
J. Snead,67.5,Teen,13-19,M,,,102.06,77.11,136.08,315.25,SBD,Single-ply,12
Terry Jorden,75,Teen,13-19,M,16,,188.24,129.27,199.58,517.1,SBD,Single-ply,1
Carl Zemrak,75,Teen,13-19,M,,,192.78,124.74,190.51,508.02,SBD,Single-ply,2
G. Shepherd,75,Teen,13-19,M,,,176.9,106.59,210.92,494.42,SBD,Single-ply,3
E. Gibson,75,Teen,13-19,M,,,154.22,97.52,226.8,478.54,SBD,Single-ply,4
J. Riegel,75,Teen,13-19,M,,,147.42,124.74,181.44,453.59,SBD,Single-ply,5
K. Macoff,75,Teen,13-19,M,,,163.29,102.06,176.9,442.25,SBD,Single-ply,6
M. Wawre,75,Teen,13-19,M,,,124.74,111.13,172.37,408.23,SBD,Single-ply,7
A. Jakes,75,Teen,13-19,M,,,145.15,99.79,158.76,403.7,SBD,Single-ply,8
G. Wiesmore,75,Teen,13-19,M,,,136.08,86.18,165.56,387.82,SBD,Single-ply,9
B. Allison,75,Teen,13-19,M,,,108.86,99.79,163.29,371.95,SBD,Single-ply,10
J. Deppeler,75,Teen,13-19,M,,,97.52,86.18,140.61,324.32,SBD,Single-ply,11
Bruce Szyszkowski,82.5,Teen,13-19,M,,75.3,204.12,140.61,229.06,573.8,SBD,Single-ply,1
A. Kandra,82.5,Teen,13-19,M,,,176.9,115.67,188.24,480.81,SBD,Single-ply,2
M. Gregoire,82.5,Teen,13-19,M,,,158.76,129.27,185.97,474,SBD,Single-ply,3
T. Kuykendall,82.5,Teen,13-19,M,,,165.56,81.65,210.92,458.13,SBD,Single-ply,4
T. Kyrlan,82.5,Teen,13-19,M,,,151.95,115.67,174.63,442.25,SBD,Single-ply,5
M. Blattenberger,82.5,Teen,13-19,M,,,131.54,102.06,154.22,387.82,SBD,Single-ply,6
K. Ford,82.5,Teen,13-19,M,,,120.2,83.91,158.76,362.87,SBD,Single-ply,7
Rowan Gaines,90,Teen,13-19,M,,,219.99,122.47,242.67,585.13,SBD,Single-ply,1
Mike Wlosinski,90,Teen,13-19,M,,,215.46,131.54,226.8,573.8,SBD,Single-ply,2
H. Fumerelle,90,Teen,13-19,M,,,204.12,136.08,226.8,566.99,SBD,Single-ply,3
J. Malone,90,Teen,13-19,M,,,199.58,122.47,199.58,521.63,SBD,Single-ply,4
Z. Jackson,90,Teen,13-19,M,,,127.01,149.69,215.46,492.15,SBD,Single-ply,5
J. Zwawa,90,Teen,13-19,M,,,181.44,122.47,188.24,492.15,SBD,Single-ply,6
M. LeForte,90,Teen,13-19,M,,,90.72,83.91,129.27,303.91,SBD,Single-ply,7
Bert Gambini,100,Teen,13-19,M,,,219.99,172.37,231.33,623.69,SBD,Single-ply,1
A. Bello,100,Teen,13-19,M,,,222.26,142.88,229.06,594.21,SBD,Single-ply,2
F. McInnis,100,Teen,13-19,M,,,195.04,136.08,192.78,523.9,SBD,Single-ply,3
Tom Zwawa,100+,Teen,13-19,M,,,222.26,158.76,233.6,614.62,SBD,Single-ply,1
Dan Azzarella,100+,Teen,13-19,M,,,240.4,165.56,199.58,605.55,SBD,Single-ply,2
M. Myles,100+,Teen,13-19,M,,,188.24,88.45,199.58,476.27,SBD,Single-ply,3
J. Wilson,100+,Teen,13-19,M,,,147.42,90.72,174.63,412.77,SBD,Single-ply,4
