Name,Division,Sex,Equipment,Event,BodyweightKg,WeightClassKg,Squat1Kg,Squat2Kg,Squat3Kg,Best3SquatKg,Bench1Kg,Bench2Kg,Bench3Kg,Best3BenchKg,Deadlift1Kg,Deadlift2Kg,Deadlift3Kg,Best3DeadliftKg,TotalKg,AgeRange,Place
Georgia Markham,F-C-Open,F,Raw,SBD,55.6,57,-57.5,57.5,65,65,40,-45,45,45,85,95,105,105,215,0-17.5,1
Bobbie Butters,F-C-Open,F,Raw,SBD,58.5,63,135,142.5,150,150,80,85,90,90,152.5,160,,160,400,23.5-38.5,1
Mariella Fisher,F-C-Open,F,Raw,SBD,67.8,72,130,140,153,153,70,77.5,80.5,80.5,160,175,-190.5,175,408.5,0-22.5,1
Victoria Schmidt,F-C-Open,F,Raw,SBD,71,72,-112.5,125,130,130,55,62.5,-67.5,62.5,-125,140,150,150,342.5,23.5-38.5,2
Jade Henderson,F-C-Open,F,Raw,SBD,71.3,72,95,100,105,105,60,65,-70,65,105,112.5,-117.5,112.5,282.5,0-22.5,3
Elena Papas,F-C-Open,F,Raw,SBD,81.6,84,120,125,130,130,65,70,-72.5,70,140,150,-155,150,350,23.5-38.5,1
Jacqui Pugh,F-C-Open,F,Raw,SBD,78.2,84,-40,45,55,55,25,-37.5,-37.5,25,70,82.5,95,95,175,49.5-58.5,2
Jazmine Franks,F-C-G,F,Raw,SBD,55.6,57,110,115,-120,115,57.5,60,62.5,62.5,120,-130,-130,120,297.5,23.5-38.5,G
Katie Higham,F-C-Open,F,Raw,SBD,57.9,63,95,97.5,100,100,-50,-55,-55,,120,130,135,135,,0-22.5,DQ
Rose Kimber,F-C-Open,F,Raw,SBD,70.7,72,-110,-110,-110,,45,50,-60,50,140,150,160,160,,23.5-38.5,DQ
Danielle Schofield,F-C-Open,F,Raw,SBD,94.5,84+,-137.5,-137.5,-145,,-60,65,70,70,147.5,155,160,160,,23.5-38.5,DQ
Jonathan Zatman,M-C-Open,M,Raw,SBD,65.7,66,175,185,193,193,90,95,-100,95,165,172.5,180,180,468,0-22.5,1
Aleksandr Pinegin,M-C-Open,M,Raw,SBD,66,66,125,135,145,145,125,132.5,135,135,140,155,160,160,440,23.5-38.5,2
Aziz Ahmed,M-C-Open,M,Raw,SBD,64.8,66,127.5,135,140,140,95,100,105,105,170,180,190,190,435,39.5-48.5,3
Mark Vitag,M-C-Open,M,Raw,SBD,65.8,66,100,-115,115,115,-70,-75,75,75,130,140,142.5,142.5,332.5,0-22.5,4
James Crosbie,M-C-Open,M,Raw,SBD,104,105,207.5,217.5,222.5,222.5,140,147.5,-150,147.5,260,272.5,-280,272.5,642.5,23.5-38.5,1
Dan Casson,M-C-Open,M,Raw,SBD,100.1,105,205,220,227.5,227.5,130,-135,135,135,240,255,-265,255,617.5,23.5-38.5,2
Danny Atherton,M-C-Open,M,Raw,SBD,100.9,105,190,200,215,215,145,-155,-155,145,230,245,255,255,615,23.5-38.5,3
Paul Hendrickse,M-C-Open,M,Raw,SBD,104.4,105,197.5,210,215,215,145,147.5,-155,147.5,215,227.5,240,240,602.5,23.5-38.5,4
Paul Preston,M-C-Open,M,Raw,SBD,102.9,105,185,192.5,-205,192.5,112.5,122.5,125,125,225,235,-237.5,235,552.5,23.5-38.5,5
Peter Robinson,M-C-Open,M,Raw,SBD,102.4,105,185,192.5,-200,192.5,100,105,-110,105,190,205,212.5,212.5,510,39.5-48.5,6
Danny Lee,M-C-Open,M,Raw,SBD,101.8,105,125,135,145,145,135,140,145,145,160,170,180,180,470,23.5-38.5,7
James Hannon,M-C-Open,M,Raw,SBD,118.4,120,225,235,240,240,145,155,160,160,245,265,-272.5,265,665,23.5-38.5,1
Josh Hayford,M-C-Open,M,Raw,SBD,119.4,120,210,225,232.5,232.5,130,140,-145,140,260,275,-285,275,647.5,23.5-38.5,2
Will Freeman Dunn,M-C-Open,M,Raw,SBD,119.4,120,205,212.5,220,220,167.5,175,180,180,205,215,225,225,625,23.5-38.5,3
David Hannah,M-C-Open,M,Raw,B,116.5,120,,,,,160,170,-175,170,,,,,170,23.5-38.5,1
Adele Tickle,F-C-Open,F,Raw,SBD,50.2,52,105,-110,110,110,57.5,60,-62.5,60,125,135,140.5,140.5,310.5,23.5-38.5,1
Megan Cotcher,F-C-Open,F,Raw,SBD,51.7,52,95,-102.5,102.5,102.5,55,57.5,-60.5,57.5,117.5,127.5,135,135,295,0-22.5,2
Melanie Beckley,F-C-Open,F,Raw,SBD,51.5,52,60,65,-70,65,35,-40,-40,35,70,80,-90,80,180,49.5-58.5,3
Joe Sadler,M-C-Open,M,Raw,SBD,70.9,74,140,150,155,155,92.5,97.5,-102.5,97.5,180,192.5,202.5,202.5,455,0-22.5,1
Chris Eaton,M-C-Open,M,Raw,SBD,70.4,74,127.5,-137.5,140,140,107.5,115,-120,115,175,187.5,195,195,450,23.5-38.5,2
Joel Mcmanus,M-C-Open,M,Raw,SBD,78.3,83,210,220,230,230,150,160,170,170,220,240,,240,640,23.5-38.5,1
Michael Giles,M-C-Open,M,Raw,SBD,82.7,83,205,215,225,225,135,140,-145,140,240,255,-277.5,255,620,23.5-38.5,2
James Chapman #1,M-C-Open,M,Raw,SBD,82.2,83,170,180,190,190,115,120,-125,120,215,-225,-225,215,525,23.5-38.5,3
Arnold Barcevic,M-C-Open,M,Raw,SBD,81.7,83,177.5,182.5,-187.5,182.5,117.5,122.5,-127.5,122.5,192.5,202.5,210,210,515,23.5-38.5,4
Jason Holmes #2,M-C-Open,M,Raw,SBD,82.5,83,182.5,192.5,-200,192.5,112.5,120,-125,120,200,-212.5,-212.5,200,512.5,23.5-38.5,5
Glynne Jones,M-C-Open,M,Raw,SBD,82.3,83,135,145,152.5,152.5,105,110,-115,110,210,220,227.5,227.5,490,39.5-48.5,6
Tom Nicholson,M-C-Open,M,Raw,SBD,78.6,83,137.5,145,152.5,152.5,85,92.5,-97.5,92.5,170,180,190,190,435,0-15.5,7
Simeon Kalcut,M-C-Open,M,Raw,SBD,83,83,125,130,140,140,-85,85,92.5,92.5,142.5,150,160,160,392.5,0-22.5,8
John Trowsdale,M-C-Open,M,Raw,SBD,82.3,83,-200,-220,-220,,110,-115,-115,110,180,-190,-190,180,,0-22.5,DQ
Michael Carty,M-C-Open,M,Raw,SBD,91,93,225,235,250,250,165,-175,-175,165,250,-260,-260,250,665,23.5-38.5,1
Tristan Kennedy Sutton,M-C-Open,M,Raw,SBD,90.8,93,200,210,-220,210,105,112.5,120,120,255,270,285,285,615,23.5-38.5,2
Ben Harper,M-C-Open,M,Raw,SBD,92.6,93,195,210,212.5,212.5,150,152.5,155,155,232.5,240,-245,240,607.5,23.5-38.5,3
Tom Wilks,M-C-Open,M,Raw,SBD,88.7,93,200,210,220,220,110,117.5,125,125,210,230,245,245,590,23.5-38.5,4
Chris Holt,M-C-Open,M,Raw,SBD,92,93,190,200,205,205,140,-145,-145,140,210,220,230,230,575,23.5-38.5,5
Will Fearnley,M-C-Open,M,Raw,SBD,86.7,93,180,190,200,200,120,125,130,130,200,210,220,220,550,0-22.5,6
Christopher Dauncey,M-C-Open,M,Raw,SBD,89.8,93,175,185,195,195,115,120,125,125,215,230,-240,230,550,0-22.5,7
Eduard Krkoska,M-C-Open,M,Raw,SBD,90,93,155,165,170,170,102.5,107.5,-112.5,107.5,175,187.5,195,195,472.5,0-22.5,8
Anthony McNamara,M-C-Open,M,Raw,SBD,89.2,93,130,150,-160,150,110,120,-135,120,160,182.5,-200,182.5,452.5,23.5-38.5,9
Tony Collins,M-C-G,M,Raw,SBD,95.1,105,-100,-100,110,110,50,-55,-55,50,110,120,130,130,290,59.5-68.5,G
