Place,Sex,Name,CyrillicName,BodyweightKg,Squat1Kg,Squat2Kg,Squat3Kg,Best3SquatKg,Squat4Kg,Bench1Kg,Bench2Kg,Bench3Kg,Best3BenchKg,Bench4Kg,Deadlift1Kg,Deadlift2Kg,Deadlift3Kg,Best3DeadliftKg,Deadlift4Kg,TotalKg,WeightClassKg,Event,Equipment,Tested,Division,Age,BirthDate
1,F,Olga Istratkina,Ольга Истраткина,51.6,70,80,85,85,,40,-42.5,-42.5,40,,80,85,90,90,,215,52,SBD,Raw,Yes,Teen 18-19,18,2000-12-29
1,F,Tatyana Yatsenko,Татьяна Яценко,51.2,90,-95,95,95,,45,-50,-50,45,,100,110,-120,110,,250,52,SBD,Raw,Yes,Juniors 20-23,21,1998-08-14
1,F,Natalya Aksyonova,Наталья Аксёнова,55.2,70,75,80,80,,37.5,40,42.5,42.5,,60,65,70,70,,192.5,56,SBD,Raw,Yes,Juniors 20-23,21,1998-10-31
1,F,Olga Petrichenko,Ольга Петриченко,54.8,105,115,120,120,,70,75,77.5,77.5,,-130,140,-150,140,,337.5,56,SBD,Raw,Yes,Open,33,1985-12-21
2,F,Adile Ramazanova,Адиле Рамазанова,53.7,95,102.5,-107.5,102.5,,50,55,-57.5,55,,-120,120,132.5,132.5,,290,56,SBD,Raw,Yes,Open,25,1994-03-04
DQ,F,Yuliya Gakh,Юлия Гах,66.2,-112.5,,,,,,,,,,,,,,,,67.5,SBD,Raw,Yes,Teen 18-19,19,2000-07-31
1,F,Karina Polinovskaya,Карина Полиновская,65,115,125,130,130,,65,70,-75,70,,110,120,125,125,,325,67.5,SBD,Raw,Yes,Juniors 20-23,20,1998-11-24
1,F,Oksana Maruk,Оксана Марук,66.3,-110,-110,110,110,,70,75,-80,75,,160,170,,170,,355,67.5,SBD,Raw,Yes,Open,46,1973-02-06
2,F,Oksana Grinyova,Оксана Гринёва,64.9,-100,100,-105,100,,-50,55,-60,55,,115,-120,-120,115,,270,67.5,SBD,Raw,Yes,Open,41,1978-06-05
3,F,Elena Ostapenko,Елена Остапенко,60.8,70,-75,75,75,,40,45,-50,45,,80,85,95,95,,215,67.5,SBD,Raw,Yes,Open,26,1993-04-21
1,F,Svetlana Chernobay,Светлана Чернобай,66.7,90,-95,95,95,,45,-50,50,50,,100,105,110,110,,255,67.5,SBD,Raw,Yes,Masters 40-44,40,1978-12-08
1,F,Elena Murzakhanova,Елена Мурзаханова,71.8,90,-95,97.5,97.5,,45,-50,-50,45,,100,110,115,115,,257.5,75,SBD,Raw,Yes,Open,32,1987-05-31
1,F,Irina Chumakova,Ирина Чумакова,88.1,170,177.5,-182.5,177.5,,75,77.5,-80,77.5,,180,190,-195,190,,445,90,SBD,Raw,Yes,Open,34,1985-09-26
2,F,Ekaterina Yaroshenko,Екатерина Ярошенко,88.4,127.5,132.5,135,135,,47.5,50,52.5,52.5,,135,140,145,145,,332.5,90,SBD,Raw,Yes,Open,26,1993-04-15
1,M,Bogdan Shamanskiy,Богдан Шаманский,60.8,-85,85,92.5,92.5,,-50,55,-60,55,,90,100,-110,100,,247.5,67.5,SBD,Raw,Yes,Teen 16-17,16,2003-01-11
1,M,Sergey Bryakin,Сергей Брякин,76,-150,150,-160,150,,95,-100,,95,,190,205,215,215,,460,82.5,SBD,Raw,Yes,Teen 18-19,19,2000-09-01
2,M,Evgeniy Trofimenko,Евгений Трофименко,78.6,130,140,-150,140,,-100,102.5,107.5,107.5,,180,190,-205,190,,437.5,82.5,SBD,Raw,Yes,Teen 16-17,16,2003-04-09
1,M,Vadim Sudak,Вадим Судак,80.9,155,165,175,175,,145,152.5,-157.5,152.5,,-170,190,200,200,,527.5,82.5,SBD,Raw,Yes,Juniors 20-23,20,1999-08-28
1,M,Sergey Poltavets,Сергей Полтавец,82.5,175,185,-190,185,,150,155,-160,155,,250,260,-270,260,,600,82.5,SBD,Raw,Yes,Open,26,1993-10-15
2,M,Ivan Kramarov,Иван Крамаров,79.6,165,172.5,-180,172.5,,127.5,135,140,140,,190,200,-205,200,,512.5,82.5,SBD,Raw,Yes,Open,26,1992-11-27
DQ,M,Vladimir Pecherskiy,Владимир Печерский,81.8,160,170,-175,170,,130,140,-145,140,,-192.5,-192.5,,,,,82.5,SBD,Raw,Yes,Open,36,1983-10-05
1,M,Daniil Voronin,Даниил Воронин,88.4,-170,177.5,180,180,,115,120,-122.5,120,,180,190,200,200,,500,90,SBD,Raw,Yes,Teen 16-17,17,2002-03-07
2,M,Maksim Sovkov,Максим Совков,82.8,100,110,-120,110,,90,92.5,-97.5,92.5,,-110,115,120,120,,322.5,90,SBD,Raw,Yes,Teen 13-15,15,2004-07-06
1,M,Nikolay Mikhaylutin,Николай Михайлутин,87.6,160,170,180,180,,-120,120,-125,120,,220,230,240,240,,540,90,SBD,Raw,Yes,Open,31,1988-03-08
1,M,Yuriy Nikishov,Юрий Никишов,97.8,180,185,190,190,,130,135,,135,,200,210,-220,210,,535,100,SBD,Raw,Yes,Open,35,1984-02-29
2,M,Nikolay Gordienko,Николай Гордиенко,94.9,155,165,170,170,,117.5,122.5,-127.5,122.5,,215,225,232.5,232.5,,525,100,SBD,Raw,Yes,Open,27,1992-01-13
1,M,Dmitriy Tarasov,Дмитрий Тарасов,104.3,-200,200,-210,200,,140,145,-150,145,,250,260,-270,260,,605,110,SBD,Raw,Yes,Open,24,1995-04-18
2,M,Viktor Ermakov,Виктор Ермаков,107.4,150,160,175,175,,105,110,120,120,,170,185,200,200,,495,110,SBD,Raw,Yes,Open,38,1981-01-25
1,M,Anton Barskov,Антон Барсков,160,280,295,300,300,,190,-200,,190,,260,-280,280,280,,770,140+,SBD,Raw,Yes,Open,35,1984-05-17
1,M,Rena Novruzova,Рена Новрузова,56.4,100,105,110,110,,55,60,-65,60,,105,-115,125,125,,295,60,SBD,Raw,No,Open,31,1987-12-17
1,M,Yuliya Antonova,Юлія Антонова,61.2,140,145,152.5,152.5,,80,85,90,90,,160,170,172.5,172.5,,415,67.5,SBD,Raw,No,Open,39,1980-02-01
1,M,Kirill Korotich,Кирилл Коротич,80.8,185,200,-220,200,,127.5,132.5,137.5,137.5,,212.5,220,230,230,,567.5,82.5,SBD,Raw,No,Juniors 20-23,22,1997-08-15
1,M,Kirill Korotich,Кирилл Коротич,80.8,185,200,-220,200,,127.5,132.5,137.5,137.5,,212.5,220,230,230,,567.5,82.5,SBD,Raw,No,Open,22,1997-08-15
1,M,Teymuraz Chikovani,Теймураз Чиковани,99.9,215,230,235,235,,175,185,192.5,192.5,,250,265,-282.5,265,,692.5,100,SBD,Raw,No,Open,28,1991-10-15
2,M,Denis Bogatyrev,Денис Богатырев,98.5,220,240,250,250,,150,160,-170,160,,240,-252.5,-252.5,240,,650,100,SBD,Raw,No,Open,32,1987-03-23
1,M,Rustem Eredzhepov,Рустем Эреджепов,107.2,220,230,235,235,,145,150,,150,,250,260,,260,,645,110,SBD,Raw,No,Open,37,1982-08-05
1,F,Nadezhda Gorina,Надежда Горина,45.4,92.5,97.5,105,105,,40,42.5,45,45,,97.5,105,110,110,,260,48,SBD,Wraps,Yes,Juniors 20-23,21,1998-05-21
1,M,Daniil Ermakov,Даниил Ермаков,90.4,140,150,160,160,,75,80,-85,80,,140,150,165,165,,405,100,SBD,Wraps,Yes,Teen 13-15,15,2003-12-01
DQ,M,Ruslan Muratov,Руслан Муратов,96.9,-170,-170,-170,,,,,,,,,,,,,,100,SBD,Wraps,Yes,Masters 40-44,40,1979-07-13
1,M,Sergey Pirogov,Сергей Пирогов,96.6,205,215,220,220,,115,-120,120,120,,220,230,-235,230,,570,100,SBD,Wraps,Yes,Masters 45-49,46,1972-12-15
DQ,M,Sergey Abalyaev,Сергей Абаляев,88.5,-205,-210,-210,,,,,,,,,,,,,,90,SBD,Wraps,No,Open,29,1990-06-15
1,M,Aleksandr Burakov,Александр Бураков,98.3,220,230,-240,230,,150,160,-167.5,160,,255,272.5,-280,272.5,,662.5,100,SBD,Wraps,No,Open,26,1993-06-15
1,M,Andrey Kildyushov,Андрей Кильдюшов,102.7,195,-205,210,210,,140,-145,145,145,,210,220,225,225,,580,110,SBD,Wraps,No,Open,34,1985-09-20
1,F,Olga Petrichenko,Ольга Петриченко,54.8,,,,,,70,75,77.5,77.5,,-130,140,-150,140,,217.5,56,BD,Raw,Yes,Open,33,1985-12-21
DQ,M,Grigoriy Chuprin,Григорий Чуприн,76.6,,,,,,-105,-105,-105,,,,,,,,,82.5,BD,Raw,Yes,Open,29,1989-12-10
1,M,Ruslan Kharchenko,Руслан Харченко,95.9,,,,,,135,-142.5,-142.5,135,,190,-200,-200,190,,325,100,BD,Raw,Yes,Open,31,1988-06-26
1,M,Ruslan Muratov,Руслан Муратов,96.9,,,,,,115,-120,120,120,,180,190,195,195,,315,100,BD,Raw,Yes,Masters 40-44,40,1979-07-13
1,M,Vasiliy Leonenko,Василий Леоненко,92,,,,,,-130,130,,130,,220,,,220,,350,100,BD,Raw,Yes,Masters 50-54,52,1967-04-06
1,M,Rostislav Khalyavka,Ростислав Халявка,102.9,,,,,,110,120,122.5,122.5,,180,190,,190,,312.5,110,BD,Raw,Yes,Open,35,1984-10-31
1,M,Kirill Korotich,Кирилл Коротич,80.8,,,,,,127.5,132.5,137.5,137.5,,212.5,220,230,230,,367.5,82.5,BD,Raw,No,Juniors 20-23,22,1997-08-15
1,M,Kirill Korotich,Кирилл Коротич,80.8,,,,,,127.5,132.5,137.5,137.5,,212.5,220,230,230,,367.5,82.5,BD,Raw,No,Open,22,1997-08-15
1,M,Sergey Abalyaev,Сергей Абаляев,88.5,,,,,,-142.5,142.5,-145,142.5,,205,215,-225,215,,357.5,90,BD,Raw,No,Open,29,1990-06-15
1,M,Denis Nazarenko,Денис Назаренко,91.4,,,,,,100,110,120,120,,200,220,230,230,,350,100,BD,Raw,No,Open,35,1984-05-23
1,M,Anton Barskov,Антон Барсков,160,280,295,300,300,,,,,,,,,,,,300,140+,S,Raw,Yes,Open,35,1984-05-17
1,M,Kirill Korotich,Кирилл Коротич,80.8,185,200,-220,200,,,,,,,,,,,,200,82.5,S,Raw,No,Juniors 20-23,22,1997-08-15
1,F,Nadezhda Sobchenko,Надежда Собченко,51.7,,,,,,-45,45,50,50,,,,,,,50,52,B,Raw,Yes,Open,35,1984-10-23
1,F,Olga Petrichenko,Ольга Петриченко,54.8,,,,,,70,75,77.5,77.5,,,,,,,77.5,56,B,Raw,Yes,Open,33,1985-12-21
1,F,Natalya Razumova,Наталья Разумова,54.5,,,,,,62.5,-67.5,-67.5,62.5,,,,,,,62.5,56,B,Raw,Yes,Masters 40-44,43,1976-07-05
1,F,Elena Mukomol,Елена Мукомол,73.3,,,,,,50,52.5,-55,52.5,,,,,,,52.5,75,B,Raw,Yes,Masters 45-49,46,1972-11-12
1,M,Nikita Tofan,Никита Тофан,66,,,,,,65,70,75,75,,,,,,,75,67.5,B,Raw,Yes,Teen 13-15,15,2004-11-06
1,M,Kirill Kirgizov,Кирилл Киргизов,66,,,,,,145,-150,-150,145,,,,,,,145,67.5,B,Raw,Yes,Open,33,1986-08-21
1,M,Evgeniy Trofimenko,Евгений Трофименко,78.6,,,,,,-100,102.5,107.5,107.5,,,,,,,107.5,82.5,B,Raw,Yes,Teen 16-17,16,2003-04-09
1,M,Artem Yurets,Артем Юрец,81.8,,,,,,155,165,167.5,167.5,,,,,,,167.5,82.5,B,Raw,Yes,Open,33,1986-03-04
2,M,Eduard Grigoryan,Эдуард Григорян,81.5,,,,,,165,-172.5,-172.5,165,,,,,,,165,82.5,B,Raw,Yes,Open,42,1977-05-12
1,M,Artur Shavernev,Артур Шавернев,86.3,,,,,,-132.5,132.5,137.5,137.5,,,,,,,137.5,90,B,Raw,Yes,Open,27,1992-11-06
2,M,Artur Trotskiy,Артур Троцкий,88.7,,,,,,132.5,137.5,-142.5,137.5,,,,,,,137.5,90,B,Raw,Yes,Open,27,1992-02-23
3,M,Mikhail Tikhomirov,Михаил Тихомиров,88.9,,,,,,135,-140,-140,135,,,,,,,135,90,B,Raw,Yes,Open,33,1986-07-23
1,M,Leonid Sankov,Леонид Саньков,89,,,,,,-145,152.5,,152.5,,,,,,,152.5,90,B,Raw,Yes,Masters 45-49,49,1970-03-21
1,M,Denis Konetskiy,Денис Конецкий,98.1,,,,,,95,105,-107.5,105,,,,,,,105,100,B,Raw,Yes,Teen 13-15,15,2004-06-04
1,M,Ruslan Ametusta,Руслан Аметуста,93.9,,,,,,150,157.5,-162.5,157.5,,,,,,,157.5,100,B,Raw,Yes,Open,34,1985-10-25
DQ,M,Evgeniy Shepelev,Евгений Шепелев,98.5,,,,,,-135,-142.5,-142.5,,,,,,,,,100,B,Raw,Yes,Open,35,1984-09-11
1,M,Vasiliy Leonenko,Василий Леоненко,92,,,,,,-130,130,,130,,,,,,,130,100,B,Raw,Yes,Masters 50-54,52,1967-04-06
1,M,Seran Akimov,Серан Акимов,108.7,,,,,,147.5,155,160,160,,,,,,,160,110,B,Raw,Yes,Open,41,1978-06-23
1,M,Aleksandr Klochkov,Александр Клочков,130,,,,,,-135,135,-145,135,,,,,,,135,140,B,Raw,Yes,Masters 60-64,60,1958-11-12
1,F,Elvira Fettaeva,Эльвира Феттаева,66.9,,,,,,45,50,-52.5,50,,,,,,,50,67.5,B,Raw,No,Open,24,1995-08-29
DQ,F,Aleksandra Oreshchuk,Александра Орещук,63.8,,,,,,-45,-45,-45,,,,,,,,,67.5,B,Raw,No,Open,38,1981-08-14
1,F,Anna Nikishova,Анна Никишова,72.2,,,,,,67.5,72.5,-75,72.5,,,,,,,72.5,75,B,Raw,No,Open,29,1989-12-26
1,M,Evgeniy Kalemi,Евгений Калеми,32.9,,,,,,40,42.5,45,45,,,,,,,45,52,B,Raw,No,Youth,7,2011-12-01
2,M,Aleksandr Bezruk,Александр Безрук,40.15,,,,,,32.5,-35,35,35,,,,,,,35,52,B,Raw,No,Teen 13-15,13,2006-03-06
1,M,Vladislav Bogodist,Владислав Богодист,66.7,,,,,,97.5,-102.5,-102.5,97.5,,,,,,,97.5,67.5,B,Raw,No,Teen 13-15,15,2004-01-20
2,M,Artem Galinin,Артем Галинин,63.6,,,,,,65,75,80,80,,,,,,,80,67.5,B,Raw,No,Teen 13-15,15,2004-02-03
3,M,Mikhail Zoloilo,Михаил Золоило,62.1,,,,,,55,60,-62.5,60,,,,,,,60,67.5,B,Raw,No,Youth,12,2007-08-23
1,M,Kirill Korotich,Кирилл Коротич,80.8,,,,,,127.5,132.5,137.5,137.5,,,,,,,137.5,82.5,B,Raw,No,Juniors 20-23,22,1997-08-15
1,M,Lenur Kataev,Ленур Катаев,89.6,,,,,,192.5,-197.5,197.5,197.5,,,,,,,197.5,90,B,Raw,No,Open,25,1994-10-11
2,M,Artyom Vinogradskiy,Артём Виноградский,89.2,,,,,,165,170,-175,170,,,,,,,170,90,B,Raw,No,Open,33,1986-08-15
3,M,Anton Usmanskiy,Антон Усманский,86.4,,,,,,140,145,-150,145,,,,,,,145,90,B,Raw,No,Open,33,1986-05-06
1,M,Denis Pavlenko,Денис Павленко,100,,,,,,205,210,215,215,,,,,,,215,100,B,Raw,No,Open,26,1993-03-11
2,M,Teymuraz Chikovani,Теймураз Чиковани,99.9,,,,,,175,185,192.5,192.5,,,,,,,192.5,100,B,Raw,No,Open,28,1991-10-15
1,M,Aleksey Khromenkov,Алексей Хроменков,99.7,,,,,,105,115,125,125,,,,,,,125,100,B,Raw,No,Masters 60-64,62,1957-10-02
1,M,Dmitriy Anufriev,Дмитрий Ануфриев,105.3,,,,,,190,200,-205,200,,,,,,,200,110,B,Raw,No,Open,34,1985-01-02
DQ,M,Aleksandr Kalinichenko,Александр Калиниченко,108,,,,,,-180,-180,-180,,,,,,,,,110,B,Raw,No,Open,36,1983-07-22
1,M,Gennadiy Movchun,Геннадий Мовчун,105.8,,,,,,140,-142.5,-142.5,140,,,,,,,140,110,B,Raw,No,Masters 45-49,45,1974-08-02
1,M,Yuriy Matyushenko,Юрий Матюшенко,106.5,,,,,,130,135,140,140,,,,,,,140,110,B,Raw,No,Masters 50-54,50,1969-01-18
2,M,Sergey Pedosyuk,Сергей Педосюк,109.2,,,,,,-130,130,135,135,,,,,,,135,110,B,Raw,No,Masters 50-54,53,1966-07-18
1,M,Andrey Sorokin,Андрей Сорокин,110.7,,,,,,120,125,130,130,,,,,,,130,125,B,Raw,No,Masters 45-49,46,1973-02-13
1,F,Anna Konyukhova,Анна Конюхова,58.4,,,,,,82.5,90,-95,90,,,,,,,90,60,B,Multi-ply,Yes,Open,34,1985-08-05
1,M,Eduard Grigoryan,Эдуард Григорян,81.5,,,,,,230,,,230,,,,,,,230,82.5,B,Multi-ply,Yes,Open,42,1977-05-12
1,M,Dmitriy Tkachenko,Дмитрий Ткаченко,88.1,,,,,,210,222.5,,222.5,,,,,,,222.5,90,B,Multi-ply,Yes,Open,38,1981-04-09
2,M,Ilya Alekseev,Илья Алексеев,83.35,,,,,,190,-200,,190,,,,,,,190,90,B,Multi-ply,Yes,Open,35,1983-11-30
1,M,Anton Kirlitsa,Антон Кирлица,91.3,,,,,,210,-220,-230,210,,,,,,,210,100,B,Multi-ply,Yes,Open,34,1985-06-26
1,M,Vasiliy Leonenko,Василий Леоненко,92,,,,,,180,,,180,,,,,,,180,100,B,Multi-ply,Yes,Masters 50-54,52,1967-04-06
1,M,Dmitriy Tkachenko,Дмитрий Ткаченко,88.1,,,,,,210,222.5,,222.5,,,,,,,222.5,90,B,Multi-ply,No,Open,38,1981-04-09
1,M,Artem Stasyuk,Артем Стасюк,99.5,,,,,,270,-301,301,301,,,,,,,301,100,B,Multi-ply,No,Open,26,1993-05-30
1,M,Sergey Bagach,Сергей Багач,98.1,,,,,,200,-210,215,215,,,,,,,215,100,B,Multi-ply,No,Masters 45-49,46,1973-05-01
1,M,Oleg Shulga,Олег Шульга,104.7,,,,,,190,-200,-200,190,,,,,,,190,110,B,Multi-ply,No,Masters 50-54,50,1969-03-31
1,M,Anton Barskov,Антон Барсков,160,,,,,,-350,350,-370,350,,,,,,,350,140+,B,Multi-ply,Yes,Open,35,1984-05-17
1,M,Denis Bogatyrev,Денис Богатырев,98.5,,,,,,240,255,267.5,267.5,,,,,,,267.5,100,B,Multi-ply,No,Open,32,1987-03-23
1,M,Maksim Kopylov,Максим Копылов,105,,,,,,180,200,-220,200,,,,,,,200,110,B,Multi-ply,No,Juniors 20-23,23,1996-05-11
1,F,Sultanie Abibulaeva,Султание Абибулаева,62,,,,,,25,30,-35,30,,,,,,,30,67.5,B,Raw,No,Teen 18-19,19,2000-06-27
1,M,Ruslan Mamutov,Руслан Мамутов,83.9,,,,,,67.5,70,-72.5,70,,,,,,,70,90,B,Raw,No,Open,26,1993-08-12
1,M,Konstantin Makarenko,Константин Макаренко,105.6,,,,,,110,117.5,125,125,,,,,,,125,110,B,Raw,No,Masters 45-49,46,1973-02-03
1,F,Anastasiya Filatova,Анастасия Филатова,50.8,,,,,,,,,,,80,90,-92.5,90,,90,52,D,Raw,Yes,Juniors 20-23,20,1999-07-25
1,F,Olga Petrichenko,Ольга Петриченко,54.8,,,,,,,,,,,-130,140,-150,140,,140,56,D,Raw,Yes,Open,33,1985-12-21
1,F,Lyudmila Khromenkova,Людмила Хроменкова,54.3,,,,,,,,,,,130,137.5,145,145,,145,56,D,Raw,Yes,Masters 55-59,58,1961-09-20
1,F,Liliya Patramanskaya,Лилия Патраманская,58.9,,,,,,,,,,,100,-105,-107.5,100,,100,60,D,Raw,Yes,Open,31,1988-10-08
1,F,Sevil Abibullaeva,Севиль Абибуллаева,64.9,,,,,,,,,,,-100,100,107.5,107.5,,107.5,67.5,D,Raw,Yes,Juniors 20-23,22,1996-12-26
1,F,Oksana Maruk,Оксана Марук,66.3,,,,,,,,,,,160,170,,170,,170,67.5,D,Raw,Yes,Open,46,1973-02-06
1,F,Irina Chumakova,Ирина Чумакова,88.1,,,,,,,,,,,180,190,-195,190,,190,90,D,Raw,Yes,Open,34,1985-09-26
2,F,Ekaterina Yaroshenko,Екатерина Ярошенко,88.4,,,,,,,,,,,135,140,145,145,,145,90,D,Raw,Yes,Open,26,1993-04-15
1,M,Idris Khaybullaev,Идрис Хайбуллаев,66.4,,,,,,,,,,,235,252.5,260,260,,260,67.5,D,Raw,Yes,Open,26,1993-08-23
1,M,Stanislav Degurko,Станислав Дегурко,73.6,,,,,,,,,,,155,165,-175,165,,165,75,D,Raw,Yes,Open,32,1987-08-10
1,M,Anton Melnikov,Антон Мельников,80.5,,,,,,,,,,,120,132.5,140,140,,140,82.5,D,Raw,Yes,Teen 16-17,16,2003-06-18
1,M,Sergey Poltavets,Сергей Полтавец,82.5,,,,,,,,,,,250,260,-270,260,,260,82.5,D,Raw,Yes,Open,26,1993-10-15
2,M,Grigoriy Chuprin,Григорий Чуприн,76.6,,,,,,,,,,,160,-170,170,170,,170,82.5,D,Raw,Yes,Open,29,1989-12-10
1,M,Maksim Chmil,Максим Чмиль,86.9,,,,,,,,,,,-180,-180,180,180,,180,90,D,Raw,Yes,Juniors 20-23,23,1996-06-19
1,M,Mikhail Dikhtemirov,Михаил Дихтемиров,88.9,,,,,,,,,,,210,-230,-230,210,,210,90,D,Raw,Yes,Open,25,1993-11-15
1,M,Nikolay Gordienko,Николай Гордиенко,94.9,,,,,,,,,,,215,225,232.5,232.5,,232.5,100,D,Raw,Yes,Open,27,1992-01-13
1,M,Sergey Pirogov,Сергей Пирогов,96.6,,,,,,,,,,,220,230,-235,230,,230,100,D,Raw,Yes,Masters 45-49,46,1972-12-15
1,M,Vasiliy Leonenko,Василий Леоненко,92,,,,,,,,,,,220,,,220,,220,100,D,Raw,Yes,Masters 50-54,52,1967-04-06
1,M,Artem Pashkin,Артем Пашкин,104.2,,,,,,,,,,,-230,240,-245,240,,240,110,D,Raw,Yes,Open,28,1991-07-29
2,M,Rostislav Khalyavka,Ростислав Халявка,102.9,,,,,,,,,,,180,190,,190,,190,110,D,Raw,Yes,Open,35,1984-10-31
1,M,Tatyana Ivanovskaya,Татьяна Ивановская,51.8,,,,,,,,,,,80,90,95,95,,95,52,D,Raw,No,Open,29,1990-03-30
1,M,Selim Fakriev,Селим Факриев,73.9,,,,,,,,,,,215,225,-240,225,,225,75,D,Raw,No,Open,22,1997-10-25
1,M,Kirill Korotich,Кирилл Коротич,80.8,,,,,,,,,,,212.5,220,230,230,,230,82.5,D,Raw,No,Juniors 20-23,22,1997-08-15
1,M,Kirill Korotich,Кирилл Коротич,80.8,,,,,,,,,,,212.5,220,230,230,,230,82.5,D,Raw,No,Open,22,1997-08-15
1,M,Aleksandr Burakov,Александр Бураков,98.3,,,,,,,,,,,255,272.5,-280,272.5,,272.5,100,D,Raw,No,Open,26,1993-06-15
2,M,Denis Bogatyrev,Денис Богатырев,98.5,,,,,,,,,,,240,-252.5,-252.5,240,,240,100,D,Raw,No,Open,32,1987-03-23
3,M,Aleksandr Storoshchuk,Александр Сторощук,94.6,,,,,,,,,,,230,-245,-245,230,,230,100,D,Raw,No,Open,39,1980-01-25
1,M,Ruslan Zhigalov,Руслан Жигалов,108.9,,,,,,,,,,,260,270,275,275,,275,110,D,Raw,No,Open,39,1980-08-10
2,M,Rustem Eredzhepov,Рустем Эреджепов,107.2,,,,,,,,,,,250,260,,260,,260,110,D,Raw,No,Open,37,1982-08-05
