Name,Sex,WeightClassKg,BodyweightKg,BirthDate,Squat1Kg,Squat2Kg,Squat3Kg,Best3SquatKg,Bench1Kg,Bench2Kg,Bench3Kg,Best3BenchKg,Deadlift1Kg,Deadlift2Kg,Deadlift3Kg,Best3DeadliftKg,TotalKg,Place,Equipment,Division,Event
Udo Bauer,M,74,73.5,1965-10-01,155,162.5,167.5,167.5,90,95,97.5,97.5,220,230,240,240,505,G,Raw,Open,SBD
Philipp Gramlich,M,120+,131.6,1987-10-06,270,290,-305,290,175,185,-195,185,290,305,320,320,795,2,Raw,Open,SBD
Anja Schreiner,F,47,46.1,1993-07-30,120,130,135,135,90,-95,97.5,97.5,115,125,135,135,367.5,3,Single-ply,Open,SBD
Catrin Resch,F,52,49,1965-01-08,112.5,122.5,132.5,132.5,75,82.5,-87.5,82.5,115,130,137.5,137.5,352.5,10,Single-ply,Open,SBD
Anne-Jasmin Scholz,F,63,62.7,1996-05-25,115,125,130,130,62.5,67.5,72.5,72.5,130,142.5,152.5,152.5,355,9,Single-ply,Open,SBD
Kathrin Böttcher,F,72,64.9,1984-03-09,110,120,125,125,80,-85,-85,80,100,,,100,305,9,Single-ply,Open,SBD
Nicole Fydrich,F,72,66.7,1981-12-26,157.5,165,172.5,172.5,102.5,105,-110,105,180,190,195,195,472.5,9,Single-ply,Open,SBD
Marc Polster,M,74,72.1,1986-05-05,250,260,,260,150,-165,165,165,225,245,260,260,685,3,Single-ply,Open,SBD
Matthias Schweizer,M,74,73.6,1966-05-20,125,135,-140,135,85,-105,105,105,130,145,155,155,395,15,Single-ply,Open,SBD
Sebastian Kienast,M,74,73.9,1981-07-20,230,240,-245,240,125,130,-132.5,130,230,240,,240,610,8,Single-ply,Open,SBD
Peter Schorr,M,83,76,1978-04-13,235,245,252.5,252.5,160,-167.5,-167.5,160,250,260,267.5,267.5,680,15,Single-ply,Open,SBD
Hannes Haase,M,83,77.2,1997-04-05,175,190,200,200,137.5,-147.5,-155,137.5,190,205,215,215,552.5,11,Single-ply,Open,SBD
János Geerhardt,M,83,80.4,1987-08-15,195,207.5,212.5,212.5,120,127.5,-140,127.5,230,242.5,-250,242.5,582.5,13,Single-ply,Open,SBD
Max Lochschmidt,M,83,81.3,1983-11-29,265,-275,275,275,185,192.5,197.5,197.5,265,275,282.5,282.5,755,2,Single-ply,Open,SBD
Jonas Beuter,M,83,81.3,1997-02-14,150,160,170,170,105,110,112.5,112.5,180,190,200,200,482.5,14,Single-ply,Open,SBD
Ingo Woschny,M,83,81.4,1965-05-26,190,200,210,210,60,,,60,180,,,180,450,12,Single-ply,Open,SBD
Marco Dömling,M,83,81.4,1976-08-23,200,220,230,230,130,137.5,150,150,200,220,230,230,610,13,Single-ply,Open,SBD
Thomas Korell,M,83,82.6,1983-07-29,235,250,,250,-180,-185,185,185,210,230,245,245,680,14,Single-ply,Open,SBD
Alexander Denk,M,83,82.9,1986-04-03,230,245,255,255,-180,-180,180,180,220,235,-252.5,235,670,4,Single-ply,Open,SBD
Hubert Wagner,M,93,83.2,1981-08-06,265,280,,280,-200,200,-207.5,200,270,290,-310,290,770,6,Single-ply,Open,SBD
Ron Kronschwitz,M,93,84.2,1981-02-08,230,250,270,270,180,187.5,195,195,240,250,260,260,725,12,Single-ply,Open,SBD
André Reinwarth,M,93,85.3,1978-03-31,215,225,235,235,165,-172.5,175,175,220,235,250,250,660,5,Single-ply,Open,SBD
Julian Schnurr,M,93,85.5,1994-01-21,265,275,285,285,190,-197.5,197.5,197.5,250,270,280,280,762.5,4,Single-ply,Open,SBD
Danijel Wussogk,M,93,85.8,1990-04-04,250,265,275,275,-170,175,180,180,225,235,-240,235,690,5,Single-ply,Open,SBD
Nils Matthies,M,93,86.4,1980-04-18,260,280,,280,160,-167.5,-172.5,160,220,-240,260,260,700,8,Single-ply,Open,SBD
Daniel Ruprecht,M,93,87.1,1990-11-21,180,-190,-190,180,115,120,,120,210,,,210,510,15,Single-ply,Open,SBD
Sven Schröder,M,93,87.2,1983-07-06,190,200,205,205,140,150,-155,150,190,205,210,210,565,7,Single-ply,Open,SBD
Christian Flueras,M,93,88.2,1996-03-16,160,175,190,190,140,145,-150,145,220,240,250,250,585,12,Single-ply,Open,SBD
Ronny Schröder,M,93,89.2,1979-10-26,270,300,,300,180,190,200,200,250,270,275,275,775,7,Single-ply,Open,SBD
Michael Hurtig,M,93,89.7,1982-01-13,-240,240,255,255,170,-180,-180,170,-255,265,-287.5,265,690,6,Single-ply,Open,SBD
Thomas Starklauf,M,93,89.9,1989-12-19,255,265,-272.5,265,160,-170,,160,240,262.5,270,270,695,3,Single-ply,Open,SBD
Sascha Stendebach,M,93,91.1,1991-06-11,275,290,305,305,210,222.5,230,230,285,305,320,320,855,1,Single-ply,Open,SBD
Konrad Burghardt,M,93,91.6,1974-04-19,280,-300,300,300,225,235,-242.5,235,275,290,-300,290,825,2,Single-ply,Open,SBD
Philipp Schweda,M,93,92.2,1992-02-01,265,275,285,285,-185,185,192.5,192.5,255,-265,-265,255,732.5,5,Single-ply,Open,SBD
Marco Sura,M,93,92.5,1978-04-24,150,,,150,150,160,-165,160,167.5,,,167.5,477.5,6,Single-ply,Open,SBD
Andreas Jandorek,M,93,93,1985-04-22,295,-320,-320,295,225,240,-250,240,260,290,310,310,845,G,Single-ply,Open,SBD
Ronny Berndt,M,105,93.2,1979-03-23,280,300,-320,300,230,240,-250,240,240,252.5,-260,252.5,792.5,4,Single-ply,Open,SBD
Toralf Haaser,M,105,94.7,1974-05-07,250,265,,265,155,165,,165,250,270,,270,700,6,Single-ply,Open,SBD
Nico Jones,M,105,95.1,1994-03-29,150,160,175,175,110,-120,120,120,200,210,220,220,515,1,Single-ply,Open,SBD
Michael Pyritz,M,105,95.7,1971-12-01,210,225,240,240,110,125,135,135,210,230,250,250,625,7,Single-ply,Open,SBD
René Ullerich,M,105,97.2,1978-04-07,280,295,-315,295,190,205,-215,205,275,290,,290,790,7,Single-ply,Open,SBD
Thomas Krziwda,M,105,97.7,1973-05-26,210,220,-230,220,155,160,-165,160,210,225,-235,225,605,12,Single-ply,Open,SBD
Marklus Hinz,M,105,98.2,1971-10-11,265,285,,285,220,230,-252.5,230,220,240,250,250,765,2,Single-ply,Open,SBD
Sebastian Kaindl,M,105,99,1982-06-26,275,285,295,295,205,207.5,,207.5,290,300,307.5,307.5,810,5,Single-ply,Open,SBD
Tim Baldensperger,M,105,100,1992-03-16,220,230,240,240,135,142.5,145,145,230,250,260,260,645,8,Single-ply,Open,SBD
Eduard Kehr,M,105,100.1,1991-11-06,180,200,210,210,115,125,-132.5,125,190,212.5,230,230,565,4,Single-ply,Open,SBD
Sascha Krause,M,105,103.5,1990-06-22,250,265,270,270,120,172.5,180,180,225,255,267.5,267.5,717.5,10,Single-ply,Open,SBD
Eric Stockdreher,M,105,104.6,1996-01-21,205,220,240,240,160,-170,-170,160,190,205,-210,205,605,10,Single-ply,Open,SBD
Florian Gröbe,M,120,105.4,1990-08-22,220,235,245,245,-155,-155,155,155,235,245,252.5,252.5,652.5,9,Single-ply,Open,SBD
Robert Bitter,M,120,111.7,1984-11-04,150,165,180,180,150,160,170,170,150,175,200,200,550,14,Single-ply,Open,SBD
Christoph Seefeld,M,120,112.4,1980-11-29,280,300,307.5,307.5,-180,185,192.5,192.5,240,255,267.5,267.5,767.5,3,Single-ply,Open,SBD
Steven Podas,M,120,112.8,1989-08-19,-250,-250,275,275,150,160,-165,160,250,265,-280,265,700,8,Single-ply,Open,SBD
Hannes Lange,M,120,114.5,1997-06-21,190,200,210,210,137.5,142.5,-147.5,142.5,215,225,235,235,587.5,11,Single-ply,Open,SBD
Lars Reumuth,M,120,114.6,1973-06-18,300,325,350,350,200,210,215,215,255,-270,275,275,840,11,Single-ply,Open,SBD
Kevin Jäger #1,M,120+,124.3,1995-08-23,282.5,300,315,315,275,300,325,325,245,265,-282.5,265,905,1,Single-ply,Open,SBD
Sven Neuendorf,M,120+,126.7,1990-06-07,-230,250,-270,250,170,185,200,200,170,195,210,210,660,11,Single-ply,Open,SBD
Daniel Keil,M,120+,143,1988-02-26,-305,-305,315,315,240,250,260,260,235,250,265,265,840,1,Single-ply,Open,SBD
Jan Grigat,M,120+,152.9,1993-07-03,260,275,290,290,170,190,-195,190,260,270,280,280,760,14,Single-ply,Open,SBD
Marcus Hofmeister,M,120+,181.6,1976-07-19,325,345,,345,150,-240,,150,240,265,,265,760,13,Single-ply,Open,SBD
